<?xml version="1.0" encoding="UTF-8" standalone="no"?>
<svg
   xmlns:dc="http://purl.org/dc/elements/1.1/"
   xmlns:cc="http://creativecommons.org/ns#"
   xmlns:rdf="http://www.w3.org/1999/02/22-rdf-syntax-ns#"
   xmlns:svg="http://www.w3.org/2000/svg"
   xmlns="http://www.w3.org/2000/svg"
   xmlns:sodipodi="http://sodipodi.sourceforge.net/DTD/sodipodi-0.dtd"
   xmlns:inkscape="http://www.inkscape.org/namespaces/inkscape"
   version="1.1"
   id="Capa_1"
   x="0px"
   y="0px"
   viewBox="0 0 708.7 708.7"
   style="enable-background:new 0 0 708.7 708.7;"
   xml:space="preserve"
   sodipodi:docname="info-logo.svg"
   inkscape:version="1.0.2 (e86c870879, 2021-01-15, custom)"
   inkscape:export-filename="/home/emanuele/fluffychat/assets/info-logo.png"
   inkscape:export-xdpi="149.9698"
   inkscape:export-ydpi="149.9698"><metadata
   id="metadata43"><rdf:RDF><cc:Work
       rdf:about=""><dc:format>image/svg+xml</dc:format><dc:type
         rdf:resource="http://purl.org/dc/dcmitype/StillImage" /></cc:Work></rdf:RDF></metadata><defs
   id="defs41"><rect
     x="89.069134"
     y="402.95444"
     width="534.74869"
     height="165.59228"
     id="rect1213" /></defs><sodipodi:namedview
   pagecolor="#ffffff"
   bordercolor="#666666"
   borderopacity="1"
   objecttolerance="10"
   gridtolerance="10"
   guidetolerance="10"
   inkscape:pageopacity="0"
   inkscape:pageshadow="2"
   inkscape:window-width="1280"
   inkscape:window-height="696"
   id="namedview39"
   showgrid="false"
   inkscape:zoom="0.44306476"
   inkscape:cx="521.90635"
   inkscape:cy="520.99223"
   inkscape:window-x="159"
   inkscape:window-y="0"
   inkscape:window-maximized="1"
   inkscape:current-layer="Capa_1"
   inkscape:document-rotation="0" />
<style
   type="text/css"
   id="style2">
	.st0{fill:#444444;}
	.st1{fill:#00A1BC;}
	.st2{fill:#4C3D91;}
	.st3{fill:#FFFFFF;}
</style>


<g
   id="g884">
	
	
	
	
	
	
	
	
<text
   xml:space="preserve"
   id="text1211"
   style="font-style:normal;font-weight:normal;font-size:40px;line-height:1.25;font-family:sans-serif;white-space:pre;shape-inside:url(#rect1213);fill:#000000;fill-opacity:1;stroke:none;"
   transform="matrix(1.9592776,0,0,1.9592776,19.617021,-366.11504)"><tspan
     x="89.068359"
     y="438.3457"><tspan>Zafluffy</tspan></tspan></text></g><style
   type="text/css"
   id="style1809">
	.st0{fill:url(#SVGID_1_);}
	.st1{fill:#F094BE;}
	.st2{fill:#4D3F92;}
	.st3{fill:#FFFFFF;}
</style><g
   id="Capa_1-3"
   transform="matrix(1.6561886,0,0,1.6561886,184.94873,126.97188)">
	<linearGradient
   id="SVGID_1_"
   gradientUnits="userSpaceOnUse"
   x1="90.890999"
   y1="0.27990001"
   x2="90.890999"
   y2="181.8763"
   gradientTransform="translate(-208.87669,-5.3953388)">
		<stop
   offset="0"
   style="stop-color:#F6BFD9"
   id="stop1811" />
		<stop
   offset="0.9951"
   style="stop-color:#F3A8CA"
   id="stop1813" />
	</linearGradient>
	
	
<g
   id="g18"
   transform="matrix(2.488285,0,0,2.488285,0.66290002,21.434685)">
	
	
	
	<circle
   style="fill:#003399;stroke-width:0.915322"
   id="path60"
   sodipodi:type="arc"
   sodipodi:cx="54.886578"
   sodipodi:cy="32.014999"
   sodipodi:rx="53.386707"
   sodipodi:ry="26.316481"
   sodipodi:start="1.2217305"
   sodipodi:end="4.1887902"
   sodipodi:open="true"
   sodipodi:arc-type="chord"
   d="M 73.145906,56.744402 A 53.386707,26.316481 0 0 1 6.5017888,43.136824 53.386707,26.316481 0 0 1 28.193224,9.2242587 Z" /><g
   id="g16"
   transform="translate(-5.0333096,-3.1465636)"
   style="fill:#bfbfbf">
		<circle
   class="st1"
   cx="24.9"
   cy="38.299999"
   r="3.7"
   id="circle10"
   style="fill:#bfbfbf" />
		
		<circle
   class="st1"
   cx="49"
   cy="38.299999"
   r="3.7"
   id="circle14"
   style="fill:#ffffff" />
	<circle
   class="st1"
   cx="37.024387"
   cy="38.465519"
   r="3.7"
   id="circle14-3"
   style="fill:#ffffff" /></g>
</g></g><style
   type="text/css"
   id="style2-6">
	.st0{fill:#4C3D91;}
	.st1{fill:#FFFFFF;}
</style></svg>
